{
  "$schema": "http://json.schemastore.org/launchsettings.json",
  "profiles": {
    "Xapo.Api": {
      "commandName": "Project",
      "launchBrowser": false,
      "environmentVariables": {
        "ASPNETCORE_ENVIRONMENT": "Local"
      },
      "applicationUrl": "http://localhost:5005"
    },
    "Docker": {
      "commandName": "Docker",
      "launchBrowser": false,
      "launchUrl": "{Scheme}://{ServiceHost}:{ServicePort}",
      "publishAllPorts": true,
      "useSSL": false
    }
  }
}